{
	"files" : {
		"scripts"        : [
			"bower_components/jquery/dist/jquery.js",
			"bower_components/featherlight/release/featherlight.min.js",
			"src/scripts/double-tap-to-go.js",
			"src/scripts/main.js",
			"src/scripts/magnify.js",
			"src/scripts/fader.js",
			"src/scripts/tabs.js",
			"src/scripts/mobile-nav.js"
		],
		"styles"         : "src/styles/*.scss",
		"watchStyles"    : "src/styles/**/*.scss",
		"images"         : "src/images/**/*",
		"templates"      : "src/*.html",
		"watchTemplates" : "src/**/*.html"
	},
	"stage" : {
		"host"       : "",
		"user"       : "",
		"password"   : "",
		"remotePath" : ""
	},
	"minifyImages"   : true,
	"themeDirectory" : "build/themes/ygt/"
}
