<?xml version="1.0" encoding="UTF-8"?>
<svg width="20px" height="20px" viewBox="0 0 20 20" version="1.1" xmlns="http://www.w3.org/2000/svg" xmlns:xlink="http://www.w3.org/1999/xlink">
    <!-- Generator: Sketch 43.2 (39069) - http://www.bohemiancoding.com/sketch -->
    <title>icon-phone</title>
    <desc>Created with Sketch.</desc>
    <defs></defs>
    <g id="Page-1" stroke="none" stroke-width="1" fill="none" fill-rule="evenodd">
        <path d="M13.5,2 C13.9166687,2 14.2708319,2.14583187 14.5625,2.4375 C14.8541681,2.72916813 15,3.08333125 15,3.5 L15,16.5 C15,16.9166687 14.8541681,17.2708319 14.5625,17.5625 C14.2708319,17.8541681 13.9166687,18 13.5,18 L7.5,18 C7.08333125,18 6.72916813,17.8541681 6.4375,17.5625 C6.14583187,17.2708319 6,16.9166687 6,16.5 L6,3.5 C6,3.08333125 6.14583187,2.72916813 6.4375,2.4375 C6.72916813,2.14583187 7.08333125,2 7.5,2 L13.5,2 Z M14,16.5 L14,3.5 C14,3.35416594 13.9531255,3.23437547 13.859375,3.140625 C13.7656245,3.04687453 13.6458341,3 13.5,3 L7.5,3 C7.35416594,3 7.23437547,3.04687453 7.140625,3.140625 C7.04687453,3.23437547 7,3.35416594 7,3.5 L7,16.5 C7,16.6458341 7.04687453,16.7656245 7.140625,16.859375 C7.23437547,16.9531255 7.35416594,17 7.5,17 L13.5,17 C13.6458341,17 13.7656245,16.9531255 13.859375,16.859375 C13.9531255,16.7656245 14,16.6458341 14,16.5 Z M10.5,14.5 C10.7708347,14.5 11.0052073,14.5989573 11.203125,14.796875 C11.4010427,14.9947927 11.5,15.2291653 11.5,15.5 C11.5,15.7708347 11.4010427,16.0052073 11.203125,16.203125 C11.0052073,16.4010427 10.7708347,16.5 10.5,16.5 C10.2291653,16.5 9.99479266,16.4010427 9.796875,16.203125 C9.59895734,16.0052073 9.5,15.7708347 9.5,15.5 C9.5,15.2291653 9.59895734,14.9947927 9.796875,14.796875 C9.99479266,14.5989573 10.2291653,14.5 10.5,14.5 Z M11.5,3.5 C11.6458341,3.5 11.7656245,3.54687453 11.859375,3.640625 C11.9531255,3.73437547 12,3.85416594 12,4 C12,4.14583406 11.9531255,4.26562453 11.859375,4.359375 C11.7656245,4.45312547 11.6458341,4.5 11.5,4.5 L9.5,4.5 C9.35416594,4.5 9.23437547,4.45312547 9.140625,4.359375 C9.04687453,4.26562453 9,4.14583406 9,4 C9,3.85416594 9.04687453,3.73437547 9.140625,3.640625 C9.23437547,3.54687453 9.35416594,3.5 9.5,3.5 L11.5,3.5 Z" id="screen-smartphone---simple-line-icons" fill="#666666"></path>
    </g>
</svg>